<?xml version="1.0" encoding="UTF-8" standalone="no"?>
<!-- Created with Inkscape (http://www.inkscape.org/) -->

<svg
   xmlns:dc="http://purl.org/dc/elements/1.1/"
   xmlns:cc="http://creativecommons.org/ns#"
   xmlns:rdf="http://www.w3.org/1999/02/22-rdf-syntax-ns#"
   xmlns:svg="http://www.w3.org/2000/svg"
   xmlns="http://www.w3.org/2000/svg"
   xmlns:sodipodi="http://sodipodi.sourceforge.net/DTD/sodipodi-0.dtd"
   xmlns:inkscape="http://www.inkscape.org/namespaces/inkscape"
   width="32"
   height="32"
   id="svg2"
   version="1.1"
   inkscape:version="0.91 r13725"
   sodipodi:docname="searchSIB.svg"
   inkscape:export-filename="/Users/neubauer/Documents/ls5_workspace/cinco-inhouse-examples/DIME/info.scce.dime/icons/searchSIB.png"
   inkscape:export-xdpi="90"
   inkscape:export-ydpi="90">
  <defs
     id="defs4" />
  <sodipodi:namedview
     id="base"
     pagecolor="#ffffff"
     bordercolor="#666666"
     borderopacity="1.0"
     inkscape:pageopacity="0.0"
     inkscape:pageshadow="2"
     inkscape:zoom="1"
     inkscape:cx="-233.85384"
     inkscape:cy="2.9835284"
     inkscape:document-units="px"
     inkscape:current-layer="text3006"
     showgrid="false"
     inkscape:window-width="1920"
     inkscape:window-height="1031"
     inkscape:window-x="0"
     inkscape:window-y="1"
     inkscape:window-maximized="1"
     showguides="false"
     fit-margin-top="0"
     fit-margin-left="0"
     fit-margin-right="0"
     fit-margin-bottom="0">
    <inkscape:grid
       type="xygrid"
       id="grid3753"
       empspacing="5"
       visible="true"
       enabled="true"
       snapvisiblegridlinesonly="true"
       originx="0"
       originy="-3.4765625e-05" />
  </sodipodi:namedview>
  <metadata
     id="metadata7">
    <rdf:RDF>
      <cc:Work
         rdf:about="">
        <dc:format>image/svg+xml</dc:format>
        <dc:type
           rdf:resource="http://purl.org/dc/dcmitype/StillImage" />
        <dc:title />
      </cc:Work>
    </rdf:RDF>
  </metadata>
  <g
     inkscape:label="Layer 1"
     inkscape:groupmode="layer"
     id="layer1"
     transform="translate(0,-1020.3622)">
    <path
       sodipodi:type="arc"
       style="color:#000000;fill:#909090;fill-opacity:1;fill-rule:nonzero;stroke:none;stroke-width:2;marker:none;visibility:visible;display:inline;overflow:visible;enable-background:accumulate"
       id="path2987"
       sodipodi:cx="-37.5"
       sodipodi:cy="9.25"
       sodipodi:rx="12"
       sodipodi:ry="12"
       d="m -25.5,9.25 a 12,12 0 0 1 -12,12 12,12 0 0 1 -12,-12 12,12 0 0 1 12,-12 12,12 0 0 1 12,12 z"
       transform="matrix(1.3333333,0,0,1.3333333,65.999998,1024.0289)" />
    <g
       style="font-size:40px;font-style:normal;font-weight:normal;line-height:125%;letter-spacing:0px;word-spacing:0px;fill:#000000;fill-opacity:1;stroke:none;font-family:Sans"
       id="text3006">
      <path
         d="m 17.859374,1042.0262 -3.984375,0 c -0.01042,-0.5729 -0.01563,-0.9218 -0.01563,-1.0468 -8e-6,-1.2917 0.213534,-2.3542 0.640625,-3.1875 0.427075,-0.8334 1.28124,-1.7709 2.5625,-2.8125 1.281238,-1.0417 2.046862,-1.724 2.296875,-2.0469 0.385403,-0.5104 0.578111,-1.0729 0.578125,-1.6875 -1.4e-5,-0.8542 -0.343763,-1.5833 -1.03125,-2.1875 -0.677095,-0.6146 -1.593761,-0.9219 -2.75,-0.9219 -1.114592,0 -2.046883,0.3177 -2.796875,0.9531 -0.750006,0.6355 -1.265631,1.6042 -1.546875,2.9063 l -4.03125,-0.5 c 0.1145816,-1.8646 0.9062475,-3.4479 2.375,-4.75 1.479161,-1.3021 3.416659,-1.9531 5.8125,-1.9531 2.520821,0 4.526027,0.6615 6.015625,1.9843 1.489566,1.3126 2.234357,2.8438 2.234375,4.5938 -1.8e-5,0.9688 -0.276059,1.8854 -0.828125,2.75 -0.541683,0.8646 -1.708349,2.0417 -3.5,3.5312 -0.927096,0.7709 -1.505221,1.3907 -1.734375,1.8594 -0.218762,0.4688 -0.31772,1.3073 -0.296875,2.5156 m -3.984375,5.9063 0,-4.3906 4.390625,0 0,4.3906 -4.390625,0"
         style="font-size:32px;font-variant:normal;font-weight:bold;font-stretch:normal;fill:#44aaff;font-family:Arial;-inkscape-font-specification:Arial Bold;stroke-width:0.5;stroke-miterlimit:4;stroke-dasharray:none;stroke:#ffffff;stroke-opacity:1;stroke-linecap:square;fill-opacity:1"
         id="path3779" />
    </g>
  </g>
</svg>
